"group","variable"
"equipt_access","UsesProDevisesComputer"
"equipt_access","UsesPersoDevisesComputer"
"articlereading","PageofAccessWhyOpened"
"articlereading","PageofAccessknowledgeSubject"
"articlereading","PageofAccessHowAccess"
"articlereading","PageofAccessReadArticles"
"articlereading","PageofAccessSatisfactionInfoFound"
"articlereading","PageofAccessSatisfactionInfoEasytoFound"
"articlereading","PageofAccessUseWPResearchEngine"
"articlereading","PageofAccessEvalArticleTooLong"
"articlereading","PageofAccessEvalArticleTooShort"
"articlereading","PageofAccessEvalArticleEasytoUnderstand"
"articlereading","PageofAccessEvalArticleWellStructured"
"articlereading","PageofAccessEvalArticleReliable"
"articlereading","PageofAccessEvalArticleNeutralityOk"
"articlereading","PageofAccessReadingMethodFullyRead"
"articlereading","PageofAccessReadingMethodJustIntro"
"articlereading","PageofAccessReadingMethodRsearchedThrough"
"articlereading","PageofAccessReadingMethodReflookedat"
"articlereading","PageofAccessReadingMethodRefOpened"
"articlereading","PageofAccessOtherSitesLooked"
"usespro","UsesProSettleDebate"
"usespro","UsesProCheckSomething"
"usespro","UsesProTrain"
"usespro","UsesProWatchCuriosity"
"usespro","UsesProSettleDebateWikipedia"
"usespro","UsesProCheckSomethingWikipedia"
"usespro","UsesProTrainWikipedia"
"usespro","UsesProWatchCuriosityWikipedia"
"usespro","UsesProCopyingWithoutSourcing"
"usespro","UsesProCopyingWithSourcing"
"usespro","UsesProRefLinkArticle"
"usespro","UsesProCiteSourceFoundArticle"
"usespro","UsesProDevisesSmarphonePerso"
"usespro","UsesProDevisesSmarphonePro"
"usespro","UsesProDevisesTabletPerso"
"usespro","UsesProDevisesTabletPro"
"usespro","UsesProDevisesComputerPerso"
"usespro","UsesProDevisesComputerPro"
"usespro","UsesProDevisesComputer"
"usesperso","UsesPersoSettleDebate"
"usesperso","UsesPersoTrain"
"usesperso","UsesPersoWatchCuriosity"
"usesperso","UsesPersoDecide"
"usesperso","UsesPersoInfoonPolitics"
"usesperso","UsesPersoSettleDebateWikipedia"
"usesperso","UsesPersoTrainWikipedia"
"usesperso","UsesPersoWatchCuriosityWikipedia"
"usesperso","UsesPersoDecideWikipedia"
"usesperso","UsesPersoInfoonPoliticsWikipedia"
"usesperso","UsesPersoDevisesSmarphonePerso"
"usesperso","UsesPersoDevisesSmarphonePro"
"usesperso","UsesPersoDevisesTabletPerso"
"usesperso","UsesPersoDevisesTabletPro"
"usesperso","UsesPersoDevisesComputerPerso"
"usesperso","UsesPersoDevisesComputerPro"
"usesperso","UsesPersoDevisesComputer"
"use_wikipedia","UsesWikipediaProSettleDebate"
"use_wikipedia","UsesWikipediaProCheckSomething"
"use_wikipedia","UsesWikipediaProTrain"
"use_wikipedia","UsesWikipediaProWatchCuriosity"
"use_wikipedia","UsesWikipediaPersoSettleDebate"
"use_wikipedia","UsesWikipediaPersoTrain"
"use_wikipedia","UsesWikipediaPersoWatchCuriosity"
"use_wikipedia","UsesWikipediaPersoDecide"
"use_wikipedia","UsesWikipediaPersoInfoonPolitics"
"importance_wikipedia","ImportanceWikipediaProf"
"importance_wikipedia","ImportanceWikipediaPerso"
"importance_wikipedia","ImportanceWikipediaCultivate"
"importance_wikipedia","ImportanceWikipediaGlobal"
"discussions","DiscussWikipediaWithChildren"
"discussions","DiscussWikipediaWithParents"
"discussions","DiscussWikipediaWithFriends"
"discussions","DiscussWikipediaWithTeachers"
"discussions","DiscussWikipediaWithColleagues"
"discussions","DiscussWikipediaWithOnlineCommunities"
"perception_externe","VisionEnvironmentProCopyingWithoutSourcing"
"perception_externe","VisionEnvironmentProCopyingWithSourcing"
"perception_externe","VisionEnvironmentProRefArticleWP"
"perception_externe","VisionEnvironmentProWikipedia"
"perception_externe","VisionEnvironmentPersoWikipedia"
"know_contributor","KnowOtherWikipediaContributors"
"contributions","TotalContributionsCount"
"contributions","ParticipateInArticleDiscussions"
"contributions","SpecialRoleInProject"
"sociodemo","Gender"
"sociodemo","Age"
"sociodemo","Matrimonial"
"sociodemo","Diploma"
"sociodemo","Diploma_agreg"
"sociodemo","ProfessionalSituation"
"sociodemo","SPC"
"sociodemo","FinancialResourceLevel"
"sociodemo","TimeAvailability"
"sociodemo","Country"
"cultural_activities","ActivitiesParticipationCultural"
"cultural_activities","ActivitiesParticipationSports"
"cultural_activities","ActivitiesParticipationArtistic"
"cultural_activities","ActivitiesParticipationSocial"
"digital_activities","DigitalActivitiesListenRadio"
"digital_activities","DigitalActivitiesWatchTelevision"
"digital_activities","DigitalActivitiesWatchVideo"
"digital_activities","DigitalActivitiesListenMusic"
"digital_activities","DigitalActivitiesPlayConsol"
"digital_activities","DigitalActivitiesSocialNetworkSites"
"digital_activities","DigitalActivitiesInternetEntertainment"
"digital_activities","DigitalActivitiesInternetToWork"
"digital_activities","DigitalActivitiesStopInternet"
"readings","ReadingsBooks"
"readings","ReadingsNews"
"readings","ReadingsSciences"
"readings","ReadingsHealth"
"readings","ReadingsSport"
"readings","ReadingsComics"
"readings","ReadingsFashion"
"readings","ReadingsMusic"
"readings","ReadingsMovie"
"readings","ReadingsNature"
"readings","ReadingsVideoGames"
"digital_readings","DigitalReadingsBooks"
"digital_readings","DigitalReadingsComics"
"digital_readings","DigitalReadingsNews"
"digital_readings","DigitalReadingsFashion"
"digital_readings","DigitalReadingsSport"
"digital_readings","DigitalReadingsMusic"
"digital_readings","DigitalReadingsMovie"
"digital_readings","DigitalReadingsNature"
"digital_readings","DigitalReadingsSciences"
"digital_readings","DigitalReadingsHealth"
"digital_readings","DigitalReadingsVideoGames"
"paper_readings","PaperReadingsBooks"
"paper_readings","PaperReadingsComics"
"paper_readings","PaperReadingsNews"
"paper_readings","PaperReadingsFashion"
"paper_readings","PaperReadingsSport"
"paper_readings","PaperReadingsMusic"
"paper_readings","PaperReadingsMovie"
"paper_readings","PaperReadingsNature"
"paper_readings","PaperReadingsSciences"
"paper_readings","PaperReadingsHealth"
"paper_readings","PaperReadingsVideoGames"
"get_information","GetInInformationTelevision"
"get_information","GetInInformationRadio"
"get_information","GetInInformationNewspaper"
"get_information","GetInInformationScientificPublication"
"get_information","GetInInformationSearchEngine"
"get_information","GetInInformationSocialNetworkSitesInformation"
"information_trust","InformationTrustTelevision"
"information_trust","InformationTrustRadio"
"information_trust","InformationTrustNewspaper"
"information_trust","InformationTrustScientificPublication"
"information_trust","InformationTrustSearchEngine"
"information_trust","InformationTrustSocialNetworkSitesInformation"
"digital_skills","DigitalSkillsResearch"
"digital_skills","DigitalSkillsBrowse"
"digital_skills","DigitalSkillsDownload"
"digital_skills","DigitalSkillsManagePasswords"
"digital_skills","DigitalSkillsBuyOnline"
"digital_skills","DigitalSkillsInstallApplicationSmartphone"
"digital_skills","DigitalSkillsInstallSoftwareComputer"
"digital_skills","DigitalSkillsReadWriteMail"
"digital_skills","DigitalSkillsWriteComplexDocument"
"pro_social","ProSocialBloodDonation"
"pro_social","ProSocialAssociationResponsibilities"
"pro_social","ProSocialCharitableDonation"
"pro_social","ProSocialFinancialContributionToWikipedia"
"pro_social","ProSocialOnlineProjectDonation"
"pro_social","ProSocialCommentOnNewsArticles"
"pro_social","ProSocialAdminOrWebmasterExperience"
"pro_social","ProSocialTrustOther"
"obstacles_contribution","ObstaclesToContributingSkillLevel"
"obstacles_contribution","ObstaclesToContributingTimeConstraints"
"obstacles_contribution","ObstaclesToContributingNotFindingHowto"
"obstacles_contribution","ObstaclesToContributingOtherThingstoDo"
"agreement_wikipedia_orga","AgreementWithWikipediaAsInternautProject"
"agreement_wikipedia_orga","AgreementWithWikipediaEditableByAll"
"agreement_wikipedia_orga","AgreementWithWikipediaPhilosophy"
"agreement_wikipedia_orga","AgreementWithWikipediaCommunityConcept"
"agreement_wikipedia_orga","AgreementWithBelongingToWikipediaCommunity"
"first_contribution","FirstContributionType"
"first_contribution","FirstContributionYear"
"brake_contribution","BrakeToContributingTooComplex"
"brake_contribution","BrakeToContributingDeleted"
"brake_contribution","BrakeToContributingCritized"
"contribute_to_wikipedia","ContributeToWikipediaEditing"
"contribute_to_wikipedia","ContributeToWikipediaPageDiscussion"
"contribute_to_wikipedia","ContributeToWikipediaMessagePosting"
"contribute_to_wikipedia","ContributeToWikipediaCommunitySpaces"
"contribute_to_wikipedia","ContributeToWikipediaVoting"
"contribute_to_wikipedia","SelfPerceptionAsContributor"
"contribution_time_slot","ContributionTimeSlotWorkdays"
"contribution_time_slot","ContributionTimeSlotMidnightTo6AMWorkdays"
"contribution_time_slot","ContributionTimeSlot6To9AMWorkdays"
"contribution_time_slot","ContributionTimeSlot9To12PMWorkdays"
"contribution_time_slot","ContributionTimeSlot12To2PMWorkdays"
"contribution_time_slot","ContributionTimeSlot2To5PMWorkdays"
"contribution_time_slot","ContributionTimeSlot5To8PMWorkdays"
"contribution_time_slot","ContributionTimeSlot8To10PMWorkdays"
"contribution_time_slot","ContributionTimeSlot10PMToMidnightWorkdays"
"contribution_time_slot","ContributionTimeSlotWeekends"
"contribution_time_slot","ContributionTimeSlotMidnightTo6AMWeekends"
"contribution_time_slot","ContributionTimeSlot6To9AMWeekends"
"contribution_time_slot","ContributionTimeSlot9To12PMWeekends"
"contribution_time_slot","ContributionTimeSlot12To2PMWeekends"
"contribution_time_slot","ContributionTimeSlot2To5PMWeekends"
"contribution_time_slot","ContributionTimeSlot5To8PMWeekends"
"contribution_time_slot","ContributionTimeSlot8To10PMWeekends"
"contribution_time_slot","ContributionTimeSlot10PMToMidnightWeekends"
"contribution_time_slot","AverageTimeSpentContributing"
"contribution_time_slot","ObstaclesToContributingTimeConstraints"
"contribution_time_slot","ContributionScheduleConsistency"
